racectrl.c(1): Error! E1055: Unable to open 'libspu.h'
standard.h(7): Error! E1055: Unable to open 'libgte.h'
standard.h(8): Error! E1055: Unable to open 'libgpu.h'
standard.h(9): Error! E1055: Unable to open 'libsn.h'
standard.h(10): Error! E1055: Unable to open 'libetc.h'
standard.h(11): Error! E1055: Unable to open 'libcd.h'
standard.h(12): Error! E1055: Unable to open 'libspu.h'
object.h(15): Error! E1022: Missing or misspelled data type near 'ushort'
object.h(16): Error! E1022: Missing or misspelled data type near 'ushort'
object.h(24): Error! E1022: Missing or misspelled data type near 'CVECTOR'
object.h(25): Error! E1022: Missing or misspelled data type near 'DVECTOR'
object.h(26): Error! E1022: Missing or misspelled data type near 'DVECTOR'
object.h(27): Error! E1022: Missing or misspelled data type near 'DVECTOR'
object.h(35): Error! E1022: Missing or misspelled data type near 'CVECTOR'
object.h(36): Error! E1022: Missing or misspelled data type near 'DVECTOR'
object.h(37): Error! E1022: Missing or misspelled data type near 'DVECTOR'
object.h(38): Error! E1022: Missing or misspelled data type near 'DVECTOR'
object.h(39): Error! E1022: Missing or misspelled data type near 'DVECTOR'
object.h(47): Error! E1022: Missing or misspelled data type near 'CVECTOR'
object.h(48): Error! E1022: Missing or misspelled data type near 'DVECTOR'
object.h(50): Error! E1147: Too many errors: compilation aborted
